version="0.1"
tags={
	"Graphics"
	"Historical"
	"Technologies"
	"Military"
}
dependencies={
	" Darkest Hour - Dev Build"
	" Darkest Hour"
}
name=" Darkest Hour - Tech Profile Icons Addon"
supported_version="1.9.*"
path="C:/Users/erman/Documents/Paradox Interactive/Hearts of Iron IV/mod/Darkest-Hour_Tech_Profile"